…
``` r
print(variability)
```

    ## # A tibble: 21 × 5
    ##    route_id day_group mean_load sd_load    cv
    ##    <chr>    <chr>         <dbl>   <dbl> <dbl>
    ##  1 28       Weekend        43.1   19.9  0.462
    ##  2 28       Weekday        50.1   19.4  0.388
    ##  3 111      Weekend        50.5   18.0  0.357
    ##  4 743      Weekday        55.1   15.3  0.278
    ##  5 429      Weekend        69     12.1  0.176
    ##  6 109      Weekend        61.8   10.3  0.167
    ##  7 455      Weekend        50.4    6.76 0.134
    ##  8 39       Weekday        66.8    7.19 0.108
    ##  9 749      Weekday        92      9.71 0.106
    ## 10 39       Weekend        57.5    5.87 0.102
    ## # ℹ 11 more rows
…
